\relax 
\bibcite{IEEEhowto:kopka}{1}
\@writefile{toc}{\contentsline {section}{\numberline {I}引言}{1}}
\@writefile{toc}{\contentsline {subsection}{\numberline {\unhbox \voidb@x \hbox {I-A}}Subsection Heading Here}{1}}
\@writefile{toc}{\contentsline {subsubsection}{\numberline {\unhbox \voidb@x \hbox {I-A}1}Subsubsection Heading Here}{1}}
\@writefile{toc}{\contentsline {section}{\numberline {II}相关工作}{1}}
\@writefile{toc}{\contentsline {subsection}{\numberline {\unhbox \voidb@x \hbox {II-A}}非正常驾驶检测}{1}}
\@writefile{toc}{\contentsline {subsection}{\numberline {\unhbox \voidb@x \hbox {II-B}}深度学习}{1}}
\@writefile{toc}{\contentsline {section}{\numberline {III}Conclusion}{1}}
\@writefile{toc}{\contentsline {section}{附录\nobreakspace  A: Proof of the First Zonklar Equation}{1}}
\@writefile{toc}{\contentsline {section}{附录\nobreakspace  B}{1}}
\@writefile{toc}{\contentsline {section}{参考文献}{1}}
\@writefile{toc}{\contentsline {section}{Biographies}{2}}
\@writefile{toc}{\contentsline {subsection}{Michael Shell}{2}}
\@writefile{toc}{\contentsline {subsection}{John Doe}{2}}
\@writefile{toc}{\contentsline {subsection}{Jane Doe}{2}}
