%!PS-Adobe-3.0 EPSF-3.0
%%Creator: (MATLAB, The Mathworks, Inc. Version 9.3.0.713579 \(R2017b\). Operating System: Windows 10)
%%Title: C:/Users/myluo/Desktop/loss.eps
%%CreationDate: 2018-01-15T21:17:22
%%Pages: (atend)
%%BoundingBox: 0 0 712 415
%%LanguageLevel: 3
%%EndComments
%%BeginProlog
%%BeginResource: procset (Apache XML Graphics Std ProcSet) 1.2 0
%%Version: 1.2 0
%%Copyright: (Copyright 2001-2003,2010 The Apache Software Foundation. License terms: http://www.apache.org/licenses/LICENSE-2.0)
/bd{bind def}bind def
/ld{load def}bd
/GR/grestore ld
/GS/gsave ld
/RM/rmoveto ld
/C/curveto ld
/t/show ld
/L/lineto ld
/ML/setmiterlimit ld
/CT/concat ld
/f/fill ld
/N/newpath ld
/S/stroke ld
/CC/setcmykcolor ld
/A/ashow ld
/cp/closepath ld
/RC/setrgbcolor ld
/LJ/setlinejoin ld
/GC/setgray ld
/LW/setlinewidth ld
/M/moveto ld
/re {4 2 roll M
1 index 0 rlineto
0 exch rlineto
neg 0 rlineto
cp } bd
/_ctm matrix def
/_tm matrix def
/BT { _ctm currentmatrix pop matrix _tm copy pop 0 0 moveto } bd
/ET { _ctm setmatrix } bd
/iTm { _ctm setmatrix _tm concat } bd
/Tm { _tm astore pop iTm 0 0 moveto } bd
/ux 0.0 def
/uy 0.0 def
/F {
  /Tp exch def
  /Tf exch def
  Tf findfont Tp scalefont setfont
  /cf Tf def  /cs Tp def
} bd
/ULS {currentpoint /uy exch def /ux exch def} bd
/ULE {
  /Tcx currentpoint pop def
  gsave
  newpath
  cf findfont cs scalefont dup
  /FontMatrix get 0 get /Ts exch def /FontInfo get dup
  /UnderlinePosition get Ts mul /To exch def
  /UnderlineThickness get Ts mul /Tt exch def
  ux uy To add moveto  Tcx uy To add lineto
  Tt setlinewidth stroke
  grestore
} bd
/OLE {
  /Tcx currentpoint pop def
  gsave
  newpath
  cf findfont cs scalefont dup
  /FontMatrix get 0 get /Ts exch def /FontInfo get dup
  /UnderlinePosition get Ts mul /To exch def
  /UnderlineThickness get Ts mul /Tt exch def
  ux uy To add cs add moveto Tcx uy To add cs add lineto
  Tt setlinewidth stroke
  grestore
} bd
/SOE {
  /Tcx currentpoint pop def
  gsave
  newpath
  cf findfont cs scalefont dup
  /FontMatrix get 0 get /Ts exch def /FontInfo get dup
  /UnderlinePosition get Ts mul /To exch def
  /UnderlineThickness get Ts mul /Tt exch def
  ux uy To add cs 10 mul 26 idiv add moveto Tcx uy To add cs 10 mul 26 idiv add lineto
  Tt setlinewidth stroke
  grestore
} bd
/QT {
/Y22 exch store
/X22 exch store
/Y21 exch store
/X21 exch store
currentpoint
/Y21 load 2 mul add 3 div exch
/X21 load 2 mul add 3 div exch
/X21 load 2 mul /X22 load add 3 div
/Y21 load 2 mul /Y22 load add 3 div
/X22 load /Y22 load curveto
} bd
/SSPD {
dup length /d exch dict def
{
/v exch def
/k exch def
currentpagedevice k known {
/cpdv currentpagedevice k get def
v cpdv ne {
/upd false def
/nullv v type /nulltype eq def
/nullcpdv cpdv type /nulltype eq def
nullv nullcpdv or
{
/upd true def
} {
/sametype v type cpdv type eq def
sametype {
v type /arraytype eq {
/vlen v length def
/cpdvlen cpdv length def
vlen cpdvlen eq {
0 1 vlen 1 sub {
/i exch def
/obj v i get def
/cpdobj cpdv i get def
obj cpdobj ne {
/upd true def
exit
} if
} for
} {
/upd true def
} ifelse
} {
v type /dicttype eq {
v {
/dv exch def
/dk exch def
/cpddv cpdv dk get def
dv cpddv ne {
/upd true def
exit
} if
} forall
} {
/upd true def
} ifelse
} ifelse
} if
} ifelse
upd true eq {
d k v put
} if
} if
} if
} forall
d length 0 gt {
d setpagedevice
} if
} bd
/RE { % /NewFontName [NewEncodingArray] /FontName RE -
  findfont dup length dict begin
  {
    1 index /FID ne
    {def} {pop pop} ifelse
  } forall
  /Encoding exch def
  /FontName 1 index def
  currentdict definefont pop
  end
} bind def
%%EndResource
%%BeginResource: procset (Apache XML Graphics EPS ProcSet) 1.0 0
%%Version: 1.0 0
%%Copyright: (Copyright 2002-2003 The Apache Software Foundation. License terms: http://www.apache.org/licenses/LICENSE-2.0)
/BeginEPSF { %def
/b4_Inc_state save def         % Save state for cleanup
/dict_count countdictstack def % Count objects on dict stack
/op_count count 1 sub def      % Count objects on operand stack
userdict begin                 % Push userdict on dict stack
/showpage { } def              % Redefine showpage, { } = null proc
0 setgray 0 setlinecap         % Prepare graphics state
1 setlinewidth 0 setlinejoin
10 setmiterlimit [ ] 0 setdash newpath
/languagelevel where           % If level not equal to 1 then
{pop languagelevel             % set strokeadjust and
1 ne                           % overprint to their defaults.
{false setstrokeadjust false setoverprint
} if
} if
} bd
/EndEPSF { %def
count op_count sub {pop} repeat            % Clean up stacks
countdictstack dict_count sub {end} repeat
b4_Inc_state restore
} bd
%%EndResource
%FOPBeginFontDict
%%IncludeResource: font Courier-Oblique
%%IncludeResource: font Courier-BoldOblique
%%IncludeResource: font Courier-Bold
%%IncludeResource: font ZapfDingbats
%%IncludeResource: font Symbol
%%IncludeResource: font Helvetica
%%IncludeResource: font Helvetica-Oblique
%%IncludeResource: font Helvetica-Bold
%%IncludeResource: font Helvetica-BoldOblique
%%IncludeResource: font Times-Roman
%%IncludeResource: font Times-Italic
%%IncludeResource: font Times-Bold
%%IncludeResource: font Times-BoldItalic
%%IncludeResource: font Courier
%FOPEndFontDict
%%BeginResource: encoding WinAnsiEncoding
/WinAnsiEncoding [
/.notdef /.notdef /.notdef /.notdef /.notdef
/.notdef /.notdef /.notdef /.notdef /.notdef
/.notdef /.notdef /.notdef /.notdef /.notdef
/.notdef /.notdef /.notdef /.notdef /.notdef
/.notdef /.notdef /.notdef /.notdef /.notdef
/.notdef /.notdef /.notdef /.notdef /.notdef
/.notdef /.notdef /space /exclam /quotedbl
/numbersign /dollar /percent /ampersand /quotesingle
/parenleft /parenright /asterisk /plus /comma
/hyphen /period /slash /zero /one
/two /three /four /five /six
/seven /eight /nine /colon /semicolon
/less /equal /greater /question /at
/A /B /C /D /E
/F /G /H /I /J
/K /L /M /N /O
/P /Q /R /S /T
/U /V /W /X /Y
/Z /bracketleft /backslash /bracketright /asciicircum
/underscore /quoteleft /a /b /c
/d /e /f /g /h
/i /j /k /l /m
/n /o /p /q /r
/s /t /u /v /w
/x /y /z /braceleft /bar
/braceright /asciitilde /bullet /Euro /bullet
/quotesinglbase /florin /quotedblbase /ellipsis /dagger
/daggerdbl /circumflex /perthousand /Scaron /guilsinglleft
/OE /bullet /Zcaron /bullet /bullet
/quoteleft /quoteright /quotedblleft /quotedblright /bullet
/endash /emdash /asciitilde /trademark /scaron
/guilsinglright /oe /bullet /zcaron /Ydieresis
/space /exclamdown /cent /sterling /currency
/yen /brokenbar /section /dieresis /copyright
/ordfeminine /guillemotleft /logicalnot /sfthyphen /registered
/macron /degree /plusminus /twosuperior /threesuperior
/acute /mu /paragraph /middot /cedilla
/onesuperior /ordmasculine /guillemotright /onequarter /onehalf
/threequarters /questiondown /Agrave /Aacute /Acircumflex
/Atilde /Adieresis /Aring /AE /Ccedilla
/Egrave /Eacute /Ecircumflex /Edieresis /Igrave
/Iacute /Icircumflex /Idieresis /Eth /Ntilde
/Ograve /Oacute /Ocircumflex /Otilde /Odieresis
/multiply /Oslash /Ugrave /Uacute /Ucircumflex
/Udieresis /Yacute /Thorn /germandbls /agrave
/aacute /acircumflex /atilde /adieresis /aring
/ae /ccedilla /egrave /eacute /ecircumflex
/edieresis /igrave /iacute /icircumflex /idieresis
/eth /ntilde /ograve /oacute /ocircumflex
/otilde /odieresis /divide /oslash /ugrave
/uacute /ucircumflex /udieresis /yacute /thorn
/ydieresis
] def
%%EndResource
%FOPBeginFontReencode
/Courier-Oblique findfont
dup length dict begin
  {1 index /FID ne {def} {pop pop} ifelse} forall
  /Encoding WinAnsiEncoding def
  currentdict
end
/Courier-Oblique exch definefont pop
/Courier-BoldOblique findfont
dup length dict begin
  {1 index /FID ne {def} {pop pop} ifelse} forall
  /Encoding WinAnsiEncoding def
  currentdict
end
/Courier-BoldOblique exch definefont pop
/Courier-Bold findfont
dup length dict begin
  {1 index /FID ne {def} {pop pop} ifelse} forall
  /Encoding WinAnsiEncoding def
  currentdict
end
/Courier-Bold exch definefont pop
/Helvetica findfont
dup length dict begin
  {1 index /FID ne {def} {pop pop} ifelse} forall
  /Encoding WinAnsiEncoding def
  currentdict
end
/Helvetica exch definefont pop
/Helvetica-Oblique findfont
dup length dict begin
  {1 index /FID ne {def} {pop pop} ifelse} forall
  /Encoding WinAnsiEncoding def
  currentdict
end
/Helvetica-Oblique exch definefont pop
/Helvetica-Bold findfont
dup length dict begin
  {1 index /FID ne {def} {pop pop} ifelse} forall
  /Encoding WinAnsiEncoding def
  currentdict
end
/Helvetica-Bold exch definefont pop
/Helvetica-BoldOblique findfont
dup length dict begin
  {1 index /FID ne {def} {pop pop} ifelse} forall
  /Encoding WinAnsiEncoding def
  currentdict
end
/Helvetica-BoldOblique exch definefont pop
/Times-Roman findfont
dup length dict begin
  {1 index /FID ne {def} {pop pop} ifelse} forall
  /Encoding WinAnsiEncoding def
  currentdict
end
/Times-Roman exch definefont pop
/Times-Italic findfont
dup length dict begin
  {1 index /FID ne {def} {pop pop} ifelse} forall
  /Encoding WinAnsiEncoding def
  currentdict
end
/Times-Italic exch definefont pop
/Times-Bold findfont
dup length dict begin
  {1 index /FID ne {def} {pop pop} ifelse} forall
  /Encoding WinAnsiEncoding def
  currentdict
end
/Times-Bold exch definefont pop
/Times-BoldItalic findfont
dup length dict begin
  {1 index /FID ne {def} {pop pop} ifelse} forall
  /Encoding WinAnsiEncoding def
  currentdict
end
/Times-BoldItalic exch definefont pop
/Courier findfont
dup length dict begin
  {1 index /FID ne {def} {pop pop} ifelse} forall
  /Encoding WinAnsiEncoding def
  currentdict
end
/Courier exch definefont pop
%FOPEndFontReencode
%%EndProlog
%%Page: 1 1
%%PageBoundingBox: 0 0 712 415
%%BeginPageSetup
[1 0 0 -1 0 415] CT
%%EndPageSetup
GS
[0.6 0 0 0.6 0 -0.20001] CT
1 GC
N
0 0 1186 692 re
f
GR
GS
[0.6 0 0 0.6 0 -0.20001] CT
1 GC
N
0 0 1186 692 re
f
GR
GS
[0.6 0 0 0.6 0 -0.20001] CT
1 GC
N
91 638 M
907 638 L
907 36 L
91 36 L
cp
f
GR
GS
[0.6 0 0 0.6 0 -0.20001] CT
0.149 GC
2 setlinecap
1 LJ
0.833 LW
N
91 638 M
907 638 L
S
GR
GS
[0.6 0 0 0.6 0 -0.20001] CT
0.149 GC
2 setlinecap
1 LJ
0.833 LW
N
91 36 M
907 36 L
S
GR
GS
[0.6 0 0 0.6 0 -0.20001] CT
0.149 GC
2 setlinecap
1 LJ
0.833 LW
N
91 638 M
91 629.84 L
S
GR
GS
[0.6 0 0 0.6 0 -0.20001] CT
0.149 GC
2 setlinecap
1 LJ
0.833 LW
N
181.667 638 M
181.667 629.84 L
S
GR
GS
[0.6 0 0 0.6 0 -0.20001] CT
0.149 GC
2 setlinecap
1 LJ
0.833 LW
N
272.333 638 M
272.333 629.84 L
S
GR
GS
[0.6 0 0 0.6 0 -0.20001] CT
0.149 GC
2 setlinecap
1 LJ
0.833 LW
N
363 638 M
363 629.84 L
S
GR
GS
[0.6 0 0 0.6 0 -0.20001] CT
0.149 GC
2 setlinecap
1 LJ
0.833 LW
N
453.667 638 M
453.667 629.84 L
S
GR
GS
[0.6 0 0 0.6 0 -0.20001] CT
0.149 GC
2 setlinecap
1 LJ
0.833 LW
N
544.333 638 M
544.333 629.84 L
S
GR
GS
[0.6 0 0 0.6 0 -0.20001] CT
0.149 GC
2 setlinecap
1 LJ
0.833 LW
N
635 638 M
635 629.84 L
S
GR
GS
[0.6 0 0 0.6 0 -0.20001] CT
0.149 GC
2 setlinecap
1 LJ
0.833 LW
N
725.667 638 M
725.667 629.84 L
S
GR
GS
[0.6 0 0 0.6 0 -0.20001] CT
0.149 GC
2 setlinecap
1 LJ
0.833 LW
N
816.333 638 M
816.333 629.84 L
S
GR
GS
[0.6 0 0 0.6 0 -0.20001] CT
0.149 GC
2 setlinecap
1 LJ
0.833 LW
N
907 638 M
907 629.84 L
S
GR
GS
[0.6 0 0 0.6 0 -0.20001] CT
0.149 GC
2 setlinecap
1 LJ
0.833 LW
N
91 36 M
91 44.16 L
S
GR
GS
[0.6 0 0 0.6 0 -0.20001] CT
0.149 GC
2 setlinecap
1 LJ
0.833 LW
N
181.667 36 M
181.667 44.16 L
S
GR
GS
[0.6 0 0 0.6 0 -0.20001] CT
0.149 GC
2 setlinecap
1 LJ
0.833 LW
N
272.333 36 M
272.333 44.16 L
S
GR
GS
[0.6 0 0 0.6 0 -0.20001] CT
0.149 GC
2 setlinecap
1 LJ
0.833 LW
N
363 36 M
363 44.16 L
S
GR
GS
[0.6 0 0 0.6 0 -0.20001] CT
0.149 GC
2 setlinecap
1 LJ
0.833 LW
N
453.667 36 M
453.667 44.16 L
S
GR
GS
[0.6 0 0 0.6 0 -0.20001] CT
0.149 GC
2 setlinecap
1 LJ
0.833 LW
N
544.333 36 M
544.333 44.16 L
S
GR
GS
[0.6 0 0 0.6 0 -0.20001] CT
0.149 GC
2 setlinecap
1 LJ
0.833 LW
N
635 36 M
635 44.16 L
S
GR
GS
[0.6 0 0 0.6 0 -0.20001] CT
0.149 GC
2 setlinecap
1 LJ
0.833 LW
N
725.667 36 M
725.667 44.16 L
S
GR
GS
[0.6 0 0 0.6 0 -0.20001] CT
0.149 GC
2 setlinecap
1 LJ
0.833 LW
N
816.333 36 M
816.333 44.16 L
S
GR
GS
[0.6 0 0 0.6 0 -0.20001] CT
0.149 GC
2 setlinecap
1 LJ
0.833 LW
N
907 36 M
907 44.16 L
S
GR
GS
[0.6 0 0 0.6 54.6 386.60001] CT
0.149 GC
/Helvetica 16.667 F
GS
[1 0 0 1 0 0] CT
-5 17 moveto 
1 -1 scale
(1) t 
GR
GR
GS
[0.6 0 0 0.6 109 386.60001] CT
0.149 GC
/Helvetica 16.667 F
GS
[1 0 0 1 0 0] CT
-5 17 moveto 
1 -1 scale
(2) t 
GR
GR
GS
[0.6 0 0 0.6 163.4 386.60001] CT
0.149 GC
/Helvetica 16.667 F
GS
[1 0 0 1 0 0] CT
-5 17 moveto 
1 -1 scale
(3) t 
GR
GR
GS
[0.6 0 0 0.6 217.79999 386.60001] CT
0.149 GC
/Helvetica 16.667 F
GS
[1 0 0 1 0 0] CT
-5 17 moveto 
1 -1 scale
(4) t 
GR
GR
GS
[0.6 0 0 0.6 272.19998 386.60001] CT
0.149 GC
/Helvetica 16.667 F
GS
[1 0 0 1 0 0] CT
-5 17 moveto 
1 -1 scale
(5) t 
GR
GR
GS
[0.6 0 0 0.6 326.59998 386.60001] CT
0.149 GC
/Helvetica 16.667 F
GS
[1 0 0 1 0 0] CT
-5 17 moveto 
1 -1 scale
(6) t 
GR
GR
GS
[0.6 0 0 0.6 380.99999 386.60001] CT
0.149 GC
/Helvetica 16.667 F
GS
[1 0 0 1 0 0] CT
-5 17 moveto 
1 -1 scale
(7) t 
GR
GR
GS
[0.6 0 0 0.6 435.4 386.60001] CT
0.149 GC
/Helvetica 16.667 F
GS
[1 0 0 1 0 0] CT
-5 17 moveto 
1 -1 scale
(8) t 
GR
GR
GS
[0.6 0 0 0.6 489.79997 386.60001] CT
0.149 GC
/Helvetica 16.667 F
GS
[1 0 0 1 0 0] CT
-5 17 moveto 
1 -1 scale
(9) t 
GR
GR
GS
[0.6 0 0 0.6 544.19998 386.60001] CT
0.149 GC
/Helvetica 16.667 F
GS
[1 0 0 1 0 0] CT
-9.5 17 moveto 
1 -1 scale
(10) t 
GR
GR
GS
[0.6 0 0 0.6 299.40023 400.19999] CT
0.149 GC
N
-25.953 6.125 M
-24.406 6.766 L
-24.969 7.188 L
-24.969 16.047 L
-24.969 16.672 -24.906 18.219 QT
-25.953 18.781 L
-25.891 16.047 -25.891 12.352 QT
-25.891 8.656 -25.953 6.125 QT
cp
-22.516 4.859 M
-20.969 5.5 L
-21.531 5.984 L
-21.531 16.953 L
-21.531 18.359 -21.453 19.984 QT
-22.516 20.547 L
-22.438 19.219 -22.438 17.594 QT
-22.438 7.391 L
-22.438 6.625 -22.516 4.859 QT
cp
-34.328 5.281 M
-34.188 5.141 L
-32.781 5.844 -32.32 6.266 QT
-31.859 6.688 -31.93 7.18 QT
-32 7.672 -32.211 7.883 QT
-32.422 8.094 -32.563 8.094 QT
-32.781 8.094 -32.984 7.469 QT
-33.266 6.625 -34.328 5.281 QT
cp
-32.422 17.031 M
-30.25 14.703 L
-30.109 14.844 L
-32.078 17.516 -32.703 19 QT
-33.625 17.875 L
-33.266 17.516 -33.344 16.953 QT
-33.344 10.984 L
-34.109 10.984 L
-34.672 10.984 -35.453 11.188 QT
-36.078 10.563 L
-33.406 10.563 L
-32.922 9.859 L
-31.859 10.766 L
-32.422 11.188 L
-32.422 17.031 L
cp
-29.188 4.938 M
-27.578 5.641 L
-28.141 6.203 L
-28.141 10.203 -28.172 12.523 QT
-28.203 14.844 -29.086 16.883 QT
-29.969 18.922 -32.563 20.766 QT
-32.781 20.625 L
-30.531 18.5 -29.828 16.461 QT
-29.125 14.422 -29.125 11.539 QT
-29.125 8.656 -29.188 4.938 QT
cp
-16.699 10.063 M
-13.668 9.859 L
-13.184 9.078 -12.684 7.953 QT
-11.355 9.016 L
-11.98 9.219 L
-14.23 11.969 -16.48 14.359 QT
-14.652 14.141 -12.059 13.656 QT
-11.98 13.938 L
-16.199 15.063 -16.84 15.828 QT
-17.746 14.359 L
-17.121 14.141 -16.418 13.406 QT
-15.715 12.672 -13.949 10.281 QT
-14.793 10.344 -15.605 10.594 QT
-16.418 10.844 -16.902 11.328 QT
-17.746 9.922 L
-17.121 9.781 -16.168 8.023 QT
-15.215 6.266 -14.652 4.297 QT
-13.105 5.219 L
-13.887 5.641 L
-15.215 7.813 -16.699 10.063 QT
cp
-17.824 17.938 M
-15.152 17.234 -11.84 16.188 QT
-11.777 16.469 L
-14.309 17.594 -16.559 18.781 QT
-16.98 19.281 L
-17.824 17.938 L
cp
-11.074 12.672 M
-10.512 11.828 -9.949 10.344 QT
-10.293 10.344 -11.074 10.563 QT
-11.699 9.922 L
-9.809 9.922 L
-8.824 7.391 L
-9.871 7.391 L
-10.793 7.391 -11.559 7.609 QT
-12.199 6.969 L
-8.684 6.969 L
-8.043 4.938 -7.98 4.234 QT
-6.496 5.078 L
-7.137 5.422 L
-7.34 5.922 -7.762 6.969 QT
-4.246 6.969 L
-3.34 6.063 L
-2.074 7.391 L
-7.902 7.391 L
-8.887 9.922 L
-6.715 9.922 L
-6.215 9.297 L
-5.09 10.141 L
-5.652 10.563 L
-5.652 13.094 L
-3.762 13.094 L
-2.918 12.25 L
-1.652 13.516 L
-5.652 13.516 L
-5.652 18.578 L
-5.59 20.266 -7.34 20.688 QT
-7.34 19.641 -9.387 19.141 QT
-9.387 18.859 L
-7.699 19 -7.137 19 QT
-6.574 19 -6.574 18.219 QT
-6.574 13.516 L
-10.293 13.516 L
-10.793 14 L
-11.699 13.016 L
-11.074 12.672 L
cp
-8.965 16.109 M
-11.215 19 -13.324 20.406 QT
-13.527 20.203 L
-12.262 19 -11.348 17.734 QT
-10.434 16.469 -9.73 14.844 QT
-8.324 15.906 L
-8.965 16.109 L
cp
-4.887 15.125 M
-2.418 16.672 -1.965 17.203 QT
-1.512 17.734 -1.512 18.219 QT
-1.512 18.641 -1.723 19.102 QT
-1.934 19.563 -2.074 19.563 QT
-2.277 19.563 -2.637 18.641 QT
-3.121 17.375 -5.027 15.344 QT
-4.887 15.125 L
cp
-9.027 10.344 M
-9.59 11.609 -10.371 13.094 QT
-6.574 13.094 L
-6.574 10.344 L
-9.027 10.344 L
cp
13.383 11.328 M
14.508 8.875 L
8.742 8.875 L
8.18 9.859 7.547 10.875 QT
6.914 11.891 5.508 13.297 QT
5.289 13.094 L
6.914 11.047 7.898 8.445 QT
8.883 5.844 9.086 4.297 QT
10.773 5.141 L
10.211 5.422 9.93 6.055 QT
9.648 6.688 8.883 8.453 QT
14.43 8.453 L
15.211 7.672 L
16.477 9.016 L
15.773 9.156 15.281 9.578 QT
14.789 10 13.586 11.469 QT
13.383 11.328 L
cp
11.055 10.844 M
10.633 15.547 8.594 17.766 QT
6.555 19.984 3.742 20.828 QT
3.602 20.625 L
7.195 19 8.602 16.43 QT
10.008 13.859 10.07 9.438 QT
11.695 10.281 L
11.273 10.625 L
11.758 14.219 13.203 16.43 QT
14.648 18.641 16.961 19.5 QT
16.898 19.703 L
15.836 19.641 15.352 20.406 QT
13.586 19.078 12.43 16.68 QT
11.273 14.281 11.055 10.844 QT
cp
1.773 5.078 M
3.258 5.844 3.852 6.477 QT
4.445 7.109 4.445 7.531 QT
4.445 7.953 4.133 8.375 QT
3.82 8.797 3.742 8.797 QT
3.461 8.797 3.258 7.891 QT
2.898 6.625 1.633 5.281 QT
1.773 5.078 L
cp
0.867 14.359 M
1.352 14.422 1.773 14.422 QT
2.414 14.422 2.766 14.141 QT
3.117 13.859 6.07 6.906 QT
6.352 7.047 L
3.602 14.219 3.461 14.5 QT
3.32 14.781 3.32 15.656 QT
3.32 16.531 3.539 18.016 QT
3.742 19.563 3.078 19.492 QT
2.414 19.422 2.273 19.07 QT
2.133 18.719 2.133 18.438 QT
2.133 18.156 2.273 17.375 QT
2.477 16.25 2.406 15.656 QT
2.336 15.063 0.867 14.641 QT
0.867 14.359 L
cp
23.277 14.703 M
22.715 15.625 22.215 16.469 QT
23.137 16.672 24.402 16.953 QT
25.027 16.25 25.668 14.703 QT
23.277 14.703 L
cp
20.387 5.219 M
21.73 6.063 22.012 6.484 QT
22.293 6.906 22.293 7.109 QT
22.293 7.469 22.043 7.82 QT
21.793 8.172 21.652 8.172 QT
21.449 8.172 21.23 7.469 QT
20.949 6.484 20.184 5.359 QT
20.387 5.219 L
cp
26.434 5 M
27.699 5.844 L
27.137 5.984 26.715 6.547 QT
26.23 7.109 25.105 8.234 QT
24.887 8.094 L
26.23 5.984 26.434 5 QT
cp
23.277 4.234 M
24.824 4.938 L
24.262 5.422 L
24.262 8.656 L
26.012 8.656 L
26.793 7.891 L
27.98 9.078 L
24.262 9.078 L
24.262 9.719 L
25.871 10.063 26.262 10.383 QT
26.652 10.703 26.652 11.188 QT
26.652 11.406 26.582 11.719 QT
26.512 12.031 26.371 12.031 QT
26.23 12.031 25.871 11.547 QT
25.309 10.766 24.262 10.063 QT
24.262 12.25 L
23.418 12.813 L
24.402 13.234 L
24.043 13.375 23.48 14.281 QT
25.668 14.281 L
26.152 13.656 L
27.215 14.563 L
26.574 14.922 L
25.871 16.531 25.309 17.172 QT
26.434 17.453 26.824 17.766 QT
27.215 18.078 27.215 18.578 QT
27.215 19.078 26.996 19.078 QT
26.793 19.078 26.512 18.781 QT
25.73 18.219 24.746 17.797 QT
22.293 19.781 18.918 20.406 QT
18.84 20.203 L
22.074 19.141 23.902 17.453 QT
22.496 16.953 21.168 16.75 QT
21.449 16.328 22.293 14.703 QT
21.371 14.703 L
20.465 14.703 19.684 14.922 QT
19.059 14.281 L
22.434 14.281 L
22.715 13.578 22.996 12.594 QT
23.34 12.734 L
23.34 9.859 L
21.449 12.031 18.98 13.234 QT
18.84 13.016 L
21.449 11.188 22.777 9.078 QT
21.512 9.078 L
20.605 9.078 19.824 9.297 QT
19.199 8.656 L
23.34 8.656 L
23.34 6.125 23.277 4.234 QT
cp
29.043 9.078 M
29.387 13.156 30.73 15.906 QT
31.855 13.516 32.137 9.078 QT
29.043 9.078 L
cp
29.387 4.234 M
31.012 5.141 L
30.449 5.359 30.168 5.992 QT
29.887 6.625 29.105 8.656 QT
33.121 8.656 L
33.965 7.813 L
35.23 9.078 L
33.184 9.078 L
32.762 14.281 31.355 16.813 QT
32.98 18.781 35.152 19.281 QT
35.152 19.563 L
33.824 19.781 33.746 20.406 QT
31.918 19.141 30.73 17.516 QT
28.402 19.781 25.168 20.828 QT
25.027 20.625 L
28.262 19.141 30.168 16.75 QT
28.824 13.438 28.762 9.5 QT
28.059 11.328 26.715 12.953 QT
26.512 12.813 L
28.199 10 29.387 4.234 QT
cp
f
GR
GS
[0.6 0 0 0.6 0 -0.20001] CT
0.149 GC
2 setlinecap
1 LJ
0.833 LW
N
91 638 M
91 36 L
S
GR
GS
[0.6 0 0 0.6 0 -0.20001] CT
0.149 GC
2 setlinecap
1 LJ
0.833 LW
N
907 638 M
907 36 L
S
GR
GS
[0.6 0 0 0.6 0 -0.20001] CT
0.149 GC
2 setlinecap
1 LJ
0.833 LW
N
91 638 M
99.16 638 L
S
GR
GS
[0.6 0 0 0.6 0 -0.20001] CT
0.149 GC
2 setlinecap
1 LJ
0.833 LW
N
91 517.6 M
99.16 517.6 L
S
GR
GS
[0.6 0 0 0.6 0 -0.20001] CT
0.149 GC
2 setlinecap
1 LJ
0.833 LW
N
91 397.2 M
99.16 397.2 L
S
GR
GS
[0.6 0 0 0.6 0 -0.20001] CT
0.149 GC
2 setlinecap
1 LJ
0.833 LW
N
91 276.8 M
99.16 276.8 L
S
GR
GS
[0.6 0 0 0.6 0 -0.20001] CT
0.149 GC
2 setlinecap
1 LJ
0.833 LW
N
91 156.4 M
99.16 156.4 L
S
GR
GS
[0.6 0 0 0.6 0 -0.20001] CT
0.149 GC
2 setlinecap
1 LJ
0.833 LW
N
91 36 M
99.16 36 L
S
GR
GS
[0.6 0 0 0.6 0 -0.20001] CT
0.149 GC
2 setlinecap
1 LJ
0.833 LW
N
907 638 M
898.84 638 L
S
GR
GS
[0.6 0 0 0.6 0 -0.20001] CT
0.149 GC
2 setlinecap
1 LJ
0.833 LW
N
907 517.6 M
898.84 517.6 L
S
GR
GS
[0.6 0 0 0.6 0 -0.20001] CT
0.149 GC
2 setlinecap
1 LJ
0.833 LW
N
907 397.2 M
898.84 397.2 L
S
GR
GS
[0.6 0 0 0.6 0 -0.20001] CT
0.149 GC
2 setlinecap
1 LJ
0.833 LW
N
907 276.8 M
898.84 276.8 L
S
GR
GS
[0.6 0 0 0.6 0 -0.20001] CT
0.149 GC
2 setlinecap
1 LJ
0.833 LW
N
907 156.4 M
898.84 156.4 L
S
GR
GS
[0.6 0 0 0.6 0 -0.20001] CT
0.149 GC
2 setlinecap
1 LJ
0.833 LW
N
907 36 M
898.84 36 L
S
GR
GS
[0.6 0 0 0.6 50.6 382.6] CT
0.149 GC
/Helvetica 16.667 F
GS
[1 0 0 1 0 0] CT
-10 6.5 moveto 
1 -1 scale
(0) t 
GR
GR
GS
[0.6 0 0 0.6 50.6 310.35998] CT
0.149 GC
/Helvetica 16.667 F
GS
[1 0 0 1 0 0] CT
-24 6.5 moveto 
1 -1 scale
(0.5) t 
GR
GR
GS
[0.6 0 0 0.6 50.6 238.12] CT
0.149 GC
/Helvetica 16.667 F
GS
[1 0 0 1 0 0] CT
-10 6.5 moveto 
1 -1 scale
(1) t 
GR
GR
GS
[0.6 0 0 0.6 50.6 165.87999] CT
0.149 GC
/Helvetica 16.667 F
GS
[1 0 0 1 0 0] CT
-24 6.5 moveto 
1 -1 scale
(1.5) t 
GR
GR
GS
[0.6 0 0 0.6 50.6 93.63999] CT
0.149 GC
/Helvetica 16.667 F
GS
[1 0 0 1 0 0] CT
-10 6.5 moveto 
1 -1 scale
(2) t 
GR
GR
GS
[0.6 0 0 0.6 50.6 21.39999] CT
0.149 GC
/Helvetica 16.667 F
GS
[1 0 0 1 0 0] CT
-24 6.5 moveto 
1 -1 scale
(2.5) t 
GR
GR
GS
[0 -0.6 0.6 0 33.2 201.99983] CT
0.149 GC
N
-14.422 -15.484 M
-14.422 -18.219 -14.484 -19.563 QT
-12.734 -18.781 L
-13.438 -18.297 L
-13.438 -15.484 L
-12.734 -15.484 L
-11.953 -16.25 L
-10.766 -15.063 L
-13.438 -15.063 L
-13.438 -12.391 L
-11.391 -13.578 L
-11.25 -13.375 L
-13.438 -11.75 L
-13.438 -5.141 L
-13.438 -4.078 -14.906 -3.453 QT
-14.766 -4.359 -16.875 -4.922 QT
-16.875 -5.219 L
-15.547 -5.078 -14.945 -5.039 QT
-14.344 -5 -14.422 -6.063 QT
-14.422 -11.047 L
-16.453 -9.641 -16.734 -9.016 QT
-17.797 -10.203 L
-17.016 -10.422 -14.422 -11.969 QT
-14.422 -15.063 L
-16.391 -15.063 L
-17.156 -14.922 L
-17.719 -15.484 L
-14.422 -15.484 L
cp
-9.922 -14.219 M
-9.844 -15.406 -9.844 -16.5 QT
-9.844 -17.594 -9.922 -18.859 QT
-8.938 -18.297 L
-4.5 -18.297 L
-4.016 -18.859 L
-2.953 -18.078 L
-3.516 -17.656 L
-3.516 -15.828 -3.453 -14.781 QT
-4.438 -14.359 L
-4.438 -14.984 L
-8.938 -14.984 L
-8.938 -14.563 L
-9.922 -14.219 L
cp
-8.938 -17.875 M
-8.938 -15.406 L
-4.438 -15.406 L
-4.438 -17.875 L
-8.938 -17.875 L
cp
-2.813 -12.25 M
-2.813 -8.656 -2.75 -7.328 QT
-3.734 -6.969 L
-3.734 -12.453 L
-9.641 -12.453 L
-9.641 -7.047 L
-10.625 -6.625 L
-10.547 -8.313 -10.547 -10.242 QT
-10.547 -12.172 -10.625 -13.438 QT
-9.641 -12.875 L
-3.875 -12.875 L
-3.375 -13.578 L
-2.188 -12.734 L
-2.813 -12.25 L
cp
-7.453 -11.688 M
-5.844 -10.906 L
-6.406 -10.484 L
-6.688 -7.328 -8.234 -5.672 QT
-9.781 -4.016 -13.219 -3.313 QT
-13.297 -3.516 L
-10.906 -4.297 -9.57 -5.461 QT
-8.234 -6.625 -7.844 -8.242 QT
-7.453 -9.859 -7.453 -11.688 QT
cp
-6.75 -6.969 M
-3.938 -6.063 -2.953 -5.57 QT
-1.969 -5.078 -1.969 -4.477 QT
-1.969 -3.875 -2.109 -3.664 QT
-2.25 -3.453 -2.328 -3.453 QT
-2.531 -3.453 -2.953 -3.938 QT
-3.516 -4.641 -4.5 -5.352 QT
-5.484 -6.063 -6.828 -6.766 QT
-6.75 -6.969 L
cp
2.504 -12.109 M
2.301 -12.25 L
3.848 -15.125 4.191 -18.156 QT
5.816 -17.313 L
5.176 -17.031 4.613 -15.547 QT
8.27 -15.547 L
8.27 -17.797 L
8.27 -18.641 8.207 -19.703 QT
10.035 -18.859 L
9.332 -18.359 L
9.332 -15.547 L
12.707 -15.547 L
13.691 -16.531 L
15.098 -15.125 L
9.332 -15.125 L
9.191 -13.094 8.973 -11.547 QT
13.973 -11.547 L
15.098 -12.672 L
16.645 -11.125 L
9.754 -11.125 L
11.223 -7.953 13.262 -6.438 QT
15.301 -4.922 16.926 -4.719 QT
16.926 -4.438 L
15.582 -4.219 15.301 -3.453 QT
13.691 -4.359 12.004 -6.266 QT
10.316 -8.172 9.395 -11.125 QT
8.91 -11.125 L
8.129 -7.891 6.27 -6.125 QT
4.41 -4.359 1.098 -3.313 QT
0.957 -3.516 L
3.77 -4.719 5.387 -6.336 QT
7.004 -7.953 7.848 -11.125 QT
3.488 -11.125 L
2.582 -11.125 1.801 -10.906 QT
1.176 -11.547 L
7.926 -11.547 L
8.207 -13.375 8.27 -15.125 QT
4.473 -15.125 L
3.488 -13.234 2.504 -12.109 QT
cp
f
GR
GS
[0.6 0 0 0.6 0 -0.20001] CT
0 0.447 0.741 RC
[10 6] 0 setdash
2 LJ
0.833 LW
N
91 102.803 M
181.667 178.959 L
272.333 273.92 L
363 364.819 L
453.667 436.567 L
544.333 488.307 L
635 523.732 L
725.667 548.558 L
816.333 566.28 L
907 579.238 L
S
GR
GS
[0.6 0 0 0.6 0 -0.20001] CT
0.851 0.325 0.098 RC
[10 6] 0 setdash
2 LJ
0.833 LW
N
91 152.538 M
181.667 318.749 L
272.333 438.461 L
363 506.457 L
453.667 545.287 L
544.333 569.014 L
635 584.503 L
725.667 595.137 L
816.333 602.765 L
907 608.442 L
S
GR
GS
[0.6 0 0 0.6 0 -0.20001] CT
0.929 0.694 0.125 RC
[10 6] 0 setdash
2 LJ
0.833 LW
N
91 99.811 M
181.667 221.094 L
272.333 364.876 L
363 470.272 L
453.667 532.807 L
544.333 570.064 L
635 593.192 L
725.667 607.721 L
816.333 616.265 L
907 621.512 L
S
GR
GS
[0.6 0 0 0.6 0 -0.20001] CT
0.494 0.184 0.557 RC
[10 6] 0 setdash
2 LJ
0.833 LW
N
91 81.566 M
181.667 112.747 L
272.333 144.75 L
363 181.543 L
453.667 221.733 L
544.333 263.364 L
635 304.329 L
725.667 343.311 L
816.333 379.006 L
907 410.712 L
S
GR
GS
[0.6 0 0 0.6 0 -0.20001] CT
0.467 0.675 0.188 RC
[10 6] 0 setdash
2 LJ
0.833 LW
N
91 117.865 M
181.667 223.648 L
272.333 353.115 L
363 454.049 L
453.667 519.198 L
544.333 556.877 L
635 579.567 L
725.667 594.561 L
816.333 605.2 L
907 613.136 L
S
GR
GS
[0.6 0 0 0.6 0 -0.20001] CT
0.302 0.745 0.933 RC
[10 6] 0 setdash
2 LJ
0.833 LW
N
91 92.042 M
181.667 162.33 L
272.333 314.325 L
363 441.191 L
453.667 513.888 L
544.333 553.684 L
635 580.275 L
725.667 598.562 L
816.333 609.784 L
907 617.752 L
S
GR
GS
[0.6 0 0 0.6 0 -0.20001] CT
0.635 0.078 0.184 RC
[10 6] 0 setdash
2 LJ
0.833 LW
N
91 89.475 M
181.667 107.955 L
272.333 154.554 L
363 254.708 L
453.667 366.419 L
544.333 457.951 L
635 520.249 L
725.667 562.186 L
816.333 590.888 L
907 610.822 L
S
GR
GS
[0.6 0 0 0.6 0 -0.20001] CT
0.149 GC
2 setlinecap
1 LJ
0.833 LW
N
907 638 M
907 36 L
S
GR
GS
[0.6 0 0 0.6 0 -0.20001] CT
0.149 GC
2 setlinecap
1 LJ
0.833 LW
N
907 638 M
898.84 638 L
S
GR
GS
[0.6 0 0 0.6 0 -0.20001] CT
0.149 GC
2 setlinecap
1 LJ
0.833 LW
N
907 517.6 M
898.84 517.6 L
S
GR
GS
[0.6 0 0 0.6 0 -0.20001] CT
0.149 GC
2 setlinecap
1 LJ
0.833 LW
N
907 397.2 M
898.84 397.2 L
S
GR
GS
[0.6 0 0 0.6 0 -0.20001] CT
0.149 GC
2 setlinecap
1 LJ
0.833 LW
N
907 276.8 M
898.84 276.8 L
S
GR
GS
[0.6 0 0 0.6 0 -0.20001] CT
0.149 GC
2 setlinecap
1 LJ
0.833 LW
N
907 156.4 M
898.84 156.4 L
S
GR
GS
[0.6 0 0 0.6 0 -0.20001] CT
0.149 GC
2 setlinecap
1 LJ
0.833 LW
N
907 36 M
898.84 36 L
S
GR
GS
[0.6 0 0 0.6 548.19996 382.6] CT
0.149 GC
/Helvetica 16.667 F
GS
[1 0 0 1 0 0] CT
0 6.5 moveto 
1 -1 scale
(0) t 
GR
GR
GS
[0.6 0 0 0.6 548.19996 310.35998] CT
0.149 GC
/Helvetica 16.667 F
GS
[1 0 0 1 0 0] CT
0 6.5 moveto 
1 -1 scale
(0.2) t 
GR
GR
GS
[0.6 0 0 0.6 548.19996 238.11998] CT
0.149 GC
/Helvetica 16.667 F
GS
[1 0 0 1 0 0] CT
0 6.5 moveto 
1 -1 scale
(0.4) t 
GR
GR
GS
[0.6 0 0 0.6 548.19996 165.87999] CT
0.149 GC
/Helvetica 16.667 F
GS
[1 0 0 1 0 0] CT
0 6.5 moveto 
1 -1 scale
(0.6) t 
GR
GR
GS
[0.6 0 0 0.6 548.19996 93.63999] CT
0.149 GC
/Helvetica 16.667 F
GS
[1 0 0 1 0 0] CT
0 6.5 moveto 
1 -1 scale
(0.8) t 
GR
GR
GS
[0.6 0 0 0.6 548.19996 21.39999] CT
0.149 GC
/Helvetica 16.667 F
GS
[1 0 0 1 0 0] CT
0 6.5 moveto 
1 -1 scale
(1) t 
GR
GR
GS
[0 -0.6 0.6 0 565.59996 201.99983] CT
0.149 GC
N
-48.828 19 M
-48.828 7.641 L
-53.078 7.641 L
-53.078 6.109 L
-42.859 6.109 L
-42.859 7.641 L
-47.125 7.641 L
-47.125 19 L
-48.828 19 L
cp
-41.72 14.328 M
-41.72 11.734 -40.267 10.484 QT
-39.064 9.453 -37.345 9.453 QT
-35.408 9.453 -34.189 10.719 QT
-32.97 11.984 -32.97 14.203 QT
-32.97 16 -33.509 17.031 QT
-34.048 18.063 -35.08 18.641 QT
-36.111 19.219 -37.345 19.219 QT
-39.298 19.219 -40.509 17.961 QT
-41.72 16.703 -41.72 14.328 QT
cp
-40.095 14.328 M
-40.095 16.125 -39.314 17.016 QT
-38.533 17.906 -37.345 17.906 QT
-36.158 17.906 -35.376 17.008 QT
-34.595 16.109 -34.595 14.281 QT
-34.595 12.547 -35.384 11.656 QT
-36.173 10.766 -37.345 10.766 QT
-38.533 10.766 -39.314 11.656 QT
-40.095 12.547 -40.095 14.328 QT
cp
-30.942 22.578 M
-30.942 9.672 L
-29.504 9.672 L
-29.504 10.875 L
-28.989 10.172 -28.348 9.813 QT
-27.708 9.453 -26.801 9.453 QT
-25.598 9.453 -24.684 10.07 QT
-23.77 10.688 -23.301 11.805 QT
-22.833 12.922 -22.833 14.266 QT
-22.833 15.688 -23.348 16.836 QT
-23.864 17.984 -24.848 18.602 QT
-25.833 19.219 -26.911 19.219 QT
-27.692 19.219 -28.325 18.883 QT
-28.958 18.547 -29.364 18.031 QT
-29.364 22.578 L
-30.942 22.578 L
cp
-29.504 14.391 M
-29.504 16.188 -28.778 17.047 QT
-28.051 17.906 -27.02 17.906 QT
-25.958 17.906 -25.208 17.016 QT
-24.458 16.125 -24.458 14.25 QT
-24.458 12.469 -25.192 11.578 QT
-25.926 10.688 -26.942 10.688 QT
-27.958 10.688 -28.731 11.633 QT
-29.504 12.578 -29.504 14.391 QT
cp
-10.154 19 M
-11.732 19 L
-11.732 8.922 L
-12.31 9.469 -13.232 10.008 QT
-14.154 10.547 -14.904 10.828 QT
-14.904 9.297 L
-13.576 8.672 -12.576 7.781 QT
-11.576 6.891 -11.17 6.063 QT
-10.154 6.063 L
-10.154 19 L
cp
2.915 11.328 M
2.915 10.844 2.853 9.641 QT
4.603 10.484 L
3.9 10.984 L
3.9 18.922 L
7.415 18.922 L
7.415 6.344 L
3.134 6.344 L
2.212 6.344 1.446 6.547 QT
0.806 5.922 L
12.696 5.922 L
13.743 4.859 L
15.228 6.344 L
8.4 6.344 L
8.4 11.891 L
11.853 11.891 L
12.837 10.906 L
14.243 12.313 L
8.4 12.313 L
8.4 18.922 L
12.696 18.922 L
13.821 17.797 L
15.368 19.359 L
1.79 19.359 L
0.884 19.359 0.103 19.563 QT
-0.522 18.922 L
2.915 18.922 L
2.915 11.328 L
cp
26.95 6.906 M
26.169 7.953 25.404 8.938 QT
26.31 9.5 L
28.7 9.5 L
30.107 6.906 L
26.95 6.906 L
cp
27.091 4.234 M
28.497 5.141 L
27.857 5.359 L
27.513 5.844 27.154 6.484 QT
30.044 6.484 L
30.669 5.781 L
31.872 6.969 L
30.81 7.047 29.122 9.5 QT
31.794 9.5 L
32.294 8.797 L
33.341 9.578 L
32.857 10.063 L
32.857 18.922 L
32.919 20.063 31.591 20.625 QT
31.513 19.703 29.825 19.359 QT
29.825 19.078 L
30.669 19.141 31.232 19.141 QT
31.591 19.141 31.763 19.07 QT
31.935 19 31.935 18.578 QT
31.935 15.625 L
29.482 15.625 L
29.482 19.781 L
28.638 20.266 L
28.638 15.625 L
26.107 15.625 L
25.888 17.234 25.083 18.508 QT
24.279 19.781 22.794 20.766 QT
22.654 20.625 L
23.997 19.281 24.63 17.805 QT
25.263 16.328 25.294 13.586 QT
25.325 10.844 25.325 9.016 QT
24.56 9.922 23.779 10.625 QT
23.575 10.484 L
24.622 9.219 25.575 7.57 QT
26.529 5.922 27.091 4.234 QT
cp
26.247 9.922 M
26.247 12.391 L
28.638 12.391 L
28.638 9.922 L
26.247 9.922 L
cp
29.482 9.922 M
29.482 12.391 L
31.935 12.391 L
31.935 9.922 L
29.482 9.922 L
cp
26.247 12.813 M
26.169 15.203 L
28.638 15.203 L
28.638 12.813 L
26.247 12.813 L
cp
29.482 12.813 M
29.482 15.203 L
31.935 15.203 L
31.935 12.813 L
29.482 12.813 L
cp
20.263 11.609 M
20.263 16.609 L
22.45 16.609 L
22.45 11.609 L
20.263 11.609 L
cp
19.357 19.359 M
19.419 17.094 19.419 12.594 QT
18.575 14.078 17.591 15.063 QT
17.45 14.922 L
19.419 11.828 20.482 7.047 QT
20.06 7.047 L
19.138 7.047 18.372 7.25 QT
17.732 6.625 L
22.794 6.625 L
23.716 5.781 L
24.841 7.047 L
21.607 7.047 L
20.904 9.078 20.122 11.188 QT
22.372 11.188 L
22.872 10.563 L
23.919 11.406 L
23.357 11.828 L
23.357 15.625 23.435 17.656 QT
22.45 18.078 L
22.45 17.031 L
20.263 17.031 L
20.263 18.922 L
19.357 19.359 L
cp
37.548 8.516 M
37.689 8.313 L
38.954 8.734 39.446 9.086 QT
39.939 9.438 39.939 9.859 QT
39.939 10.063 39.759 10.484 QT
39.579 10.906 39.439 10.906 QT
39.298 10.906 39.095 10.422 QT
38.673 9.641 37.548 8.516 QT
cp
36.626 13.797 M
37.548 13.578 40.704 11.75 QT
40.845 11.969 L
39.798 12.734 38.845 13.547 QT
37.892 14.359 37.548 14.984 QT
36.626 13.797 L
cp
49.704 9.297 M
48.579 10.141 47.111 11.125 QT
46.97 10.906 L
48.517 9.438 49.282 7.953 QT
50.407 9.078 L
49.704 9.297 L
cp
47.251 11.969 M
47.314 11.75 L
49.782 12.391 50.204 12.773 QT
50.626 13.156 50.626 13.656 QT
50.626 14 50.517 14.32 QT
50.407 14.641 50.267 14.641 QT
50.064 14.641 49.704 13.938 QT
49.079 12.953 47.251 11.969 QT
cp
43.939 8.031 M
42.111 9.719 41.548 10.141 QT
42.954 10.141 44.642 10.063 QT
45.486 9.156 45.907 8.234 QT
47.032 9.297 L
46.47 9.438 44.782 11.047 QT
43.095 12.672 42.048 13.516 QT
43.939 13.438 45.907 13.375 QT
45.626 12.875 45.064 12.109 QT
45.204 11.969 L
46.47 12.672 46.892 13.094 QT
47.314 13.516 47.314 13.797 QT
47.314 14 47.032 14.422 QT
46.751 14.844 46.611 14.844 QT
46.548 14.844 46.47 14.641 QT
46.329 14.219 46.048 13.656 QT
45.345 13.719 43.736 13.938 QT
44.923 14.641 L
44.439 14.984 L
44.439 16.25 L
50.064 16.25 L
50.97 15.344 L
52.236 16.672 L
44.439 16.672 L
44.439 19.781 44.501 20.484 QT
43.454 20.828 L
43.517 19 43.517 16.672 QT
38.251 16.672 L
37.329 16.672 36.564 16.891 QT
35.923 16.25 L
43.517 16.25 L
43.517 14 L
41.97 14.219 41.267 14.703 QT
40.564 13.516 L
41.486 13.516 42.611 12.391 QT
43.736 11.266 44.439 10.422 QT
41.829 10.703 41.126 11.188 QT
40.564 10.063 L
41.126 10.141 42.04 8.945 QT
42.954 7.75 43.236 7.109 QT
39.157 7.109 L
38.251 7.109 37.47 7.328 QT
36.845 6.688 L
43.798 6.688 L
43.657 5.5 42.611 4.375 QT
42.751 4.234 L
44.157 4.797 44.47 5.18 QT
44.782 5.563 44.782 5.781 QT
44.782 6.203 44.22 6.688 QT
49.22 6.688 L
50.126 5.844 L
51.329 7.109 L
43.657 7.109 L
44.579 7.891 L
43.939 8.031 L
cp
f
GR
GS
[0.6 0 0 0.6 0 -0.20001] CT
0 0.447 0.741 RC
1 LJ
0.833 LW
N
91 472.296 M
181.667 320.816 L
272.333 187.211 L
363 134.982 L
453.667 102.615 L
544.333 86.082 L
635 75.722 L
725.667 68.153 L
816.333 63.268 L
907 59.672 L
S
GR
GS
[0.6 0 0 0.6 0 -0.20001] CT
0.851 0.325 0.098 RC
1 LJ
0.833 LW
N
91 269.392 M
181.667 126.931 L
272.333 84.525 L
363 66.436 L
453.667 57.954 L
544.333 53.714 L
635 51.03 L
725.667 49.044 L
816.333 47.917 L
907 46.897 L
S
GR
GS
[0.6 0 0 0.6 0 -0.20001] CT
0.929 0.694 0.125 RC
1 LJ
0.833 LW
N
91 438.962 M
181.667 264.508 L
272.333 157.581 L
363 109.271 L
453.667 81.304 L
544.333 68.583 L
635 63.859 L
725.667 60.746 L
816.333 59.296 L
907 57.954 L
S
GR
GS
[0.6 0 0 0.6 0 -0.20001] CT
0.494 0.184 0.557 RC
1 LJ
0.833 LW
N
91 534.187 M
181.667 472.081 L
272.333 410.62 L
363 354.848 L
453.667 290.327 L
544.333 238.903 L
635 198.537 L
725.667 168.37 L
816.333 144.054 L
907 124.515 L
S
GR
GS
[0.6 0 0 0.6 0 -0.20001] CT
0.467 0.675 0.188 RC
1 LJ
0.833 LW
N
91 302.619 M
181.667 224.195 L
272.333 161.714 L
363 117.698 L
453.667 92.201 L
544.333 72.394 L
635 61.068 L
725.667 55.807 L
816.333 52.962 L
907 51.298 L
S
GR
GS
[0.6 0 0 0.6 0 -0.20001] CT
0.302 0.745 0.933 RC
1 LJ
0.833 LW
N
91 507.884 M
181.667 324.949 L
272.333 211.205 L
363 147.811 L
453.667 110.559 L
544.333 100.038 L
635 88.014 L
725.667 78.62 L
816.333 74.326 L
907 64.664 L
S
GR
GS
[0.6 0 0 0.6 0 -0.20001] CT
0.635 0.078 0.184 RC
1 LJ
0.833 LW
N
91 518.566 M
181.667 413.035 L
272.333 319.581 L
363 253.289 L
453.667 174.597 L
544.333 128.595 L
635 105.03 L
725.667 84.632 L
816.333 74.434 L
907 67.992 L
S
GR
GS
[0.6 0 0 0.6 0 -0.20001] CT
1 GC
N
1144 637 M
1144 344 L
979 344 L
979 637 L
cp
f
GR
GS
[0.6 0 0 0.6 622.70345 213.69679] CT
/Helvetica 15 F
GS
[1 0 0 1 0 0] CT
0 6 moveto 
1 -1 scale
(CNN-16) t 
GR
GR
GS
[0.6 0 0 0.6 0 -0.20001] CT
0 0.447 0.741 RC
[10 6] 0 setdash
2 LJ
0.833 LW
N
984.008 356.495 M
1034.083 356.495 L
S
GR
GS
[0.6 0 0 0.6 622.70345 226.06652] CT
/Helvetica 15 F
GS
[1 0 0 1 0 0] CT
0 6 moveto 
1 -1 scale
(Wide CNN-12) t 
GR
GR
GS
[0.6 0 0 0.6 0 -0.20001] CT
0.851 0.325 0.098 RC
[10 6] 0 setdash
2 LJ
0.833 LW
N
984.008 377.111 M
1034.083 377.111 L
S
GR
GS
[0.6 0 0 0.6 622.70345 238.43624] CT
/Helvetica 15 F
GS
[1 0 0 1 0 0] CT
0 6 moveto 
1 -1 scale
(Group CNN-25) t 
GR
GR
GS
[0.6 0 0 0.6 0 -0.20001] CT
0.929 0.694 0.125 RC
[10 6] 0 setdash
2 LJ
0.833 LW
N
984.008 397.727 M
1034.083 397.727 L
S
GR
GS
[0.6 0 0 0.6 622.70345 250.80597] CT
/Helvetica 15 F
GS
[1 0 0 1 0 0] CT
0 6 moveto 
1 -1 scale
(ResNet-16) t 
GR
GR
GS
[0.6 0 0 0.6 0 -0.20001] CT
0.494 0.184 0.557 RC
[10 6] 0 setdash
2 LJ
0.833 LW
N
984.008 418.343 M
1034.083 418.343 L
S
GR
GS
[0.6 0 0 0.6 622.70345 263.1757] CT
/Helvetica 15 F
GS
[1 0 0 1 0 0] CT
0 6 moveto 
1 -1 scale
(DenseNet-88) t 
GR
GR
GS
[0.6 0 0 0.6 0 -0.20001] CT
0.467 0.675 0.188 RC
[10 6] 0 setdash
2 LJ
0.833 LW
N
984.008 438.96 M
1034.083 438.96 L
S
GR
GS
[0.6 0 0 0.6 622.70345 275.54541] CT
/Helvetica 15 F
GS
[1 0 0 1 0 0] CT
0 6 moveto 
1 -1 scale
(WGD-88) t 
GR
GR
GS
[0.6 0 0 0.6 0 -0.20001] CT
0.302 0.745 0.933 RC
[10 6] 0 setdash
2 LJ
0.833 LW
N
984.008 459.576 M
1034.083 459.576 L
S
GR
GS
[0.6 0 0 0.6 622.70345 287.91513] CT
/Helvetica 15 F
GS
[1 0 0 1 0 0] CT
0 6 moveto 
1 -1 scale
(WGRD2-29) t 
GR
GR
GS
[0.6 0 0 0.6 0 -0.20001] CT
0.635 0.078 0.184 RC
[10 6] 0 setdash
2 LJ
0.833 LW
N
984.008 480.192 M
1034.083 480.192 L
S
GR
GS
[0.6 0 0 0.6 622.70345 300.28486] CT
/Helvetica 15 F
GS
[1 0 0 1 0 0] CT
0 6 moveto 
1 -1 scale
(CNN-16) t 
GR
GR
GS
[0.6 0 0 0.6 0 -0.20001] CT
0 0.447 0.741 RC
1 LJ
0.833 LW
N
984.008 500.808 M
1034.083 500.808 L
S
GR
GS
[0.6 0 0 0.6 622.70345 312.65459] CT
/Helvetica 15 F
GS
[1 0 0 1 0 0] CT
0 6 moveto 
1 -1 scale
(Wide CNN-12) t 
GR
GR
GS
[0.6 0 0 0.6 0 -0.20001] CT
0.851 0.325 0.098 RC
1 LJ
0.833 LW
N
984.008 521.424 M
1034.083 521.424 L
S
GR
GS
[0.6 0 0 0.6 622.70345 325.02431] CT
/Helvetica 15 F
GS
[1 0 0 1 0 0] CT
0 6 moveto 
1 -1 scale
(Group CNN-25) t 
GR
GR
GS
[0.6 0 0 0.6 0 -0.20001] CT
0.929 0.694 0.125 RC
1 LJ
0.833 LW
N
984.008 542.041 M
1034.083 542.041 L
S
GR
GS
[0.6 0 0 0.6 622.70345 337.39404] CT
/Helvetica 15 F
GS
[1 0 0 1 0 0] CT
0 6 moveto 
1 -1 scale
(ResNet-16) t 
GR
GR
GS
[0.6 0 0 0.6 0 -0.20001] CT
0.494 0.184 0.557 RC
1 LJ
0.833 LW
N
984.008 562.657 M
1034.083 562.657 L
S
GR
GS
[0.6 0 0 0.6 622.70345 349.76377] CT
/Helvetica 15 F
GS
[1 0 0 1 0 0] CT
0 6 moveto 
1 -1 scale
(DenseNet-88) t 
GR
GR
GS
[0.6 0 0 0.6 0 -0.20001] CT
0.467 0.675 0.188 RC
1 LJ
0.833 LW
N
984.008 583.273 M
1034.083 583.273 L
S
GR
GS
[0.6 0 0 0.6 622.70345 362.13346] CT
/Helvetica 15 F
GS
[1 0 0 1 0 0] CT
0 6 moveto 
1 -1 scale
(WGD-88) t 
GR
GR
GS
[0.6 0 0 0.6 0 -0.20001] CT
0.302 0.745 0.933 RC
1 LJ
0.833 LW
N
984.008 603.889 M
1034.083 603.889 L
S
GR
GS
[0.6 0 0 0.6 622.70345 374.50318] CT
/Helvetica 15 F
GS
[1 0 0 1 0 0] CT
0 6 moveto 
1 -1 scale
(WGRD2-29) t 
GR
GR
GS
[0.6 0 0 0.6 0 -0.20001] CT
0.635 0.078 0.184 RC
1 LJ
0.833 LW
N
984.008 624.505 M
1034.083 624.505 L
S
GR
GS
[0.6 0 0 0.6 0 -0.20001] CT
0.149 GC
10.0 ML
0.833 LW
N
979 637 M
979 344 L
1144 344 L
1144 637 L
cp
S
GR
%%Trailer
%%Pages: 1
%%EOF
